"";"http://18.138.249.139/abby.html";"ABBY";"Root Catalog > Default Category";"";"";"ABBY";"N";"0";"1";"0"
"100.00";"http://18.138.249.139/abby-gra-130x175cm.html";"ABBY";"Root Catalog > Default Category";"http://18.138.249.139/pub/media/catalog/product/7/7/7719770922_3.jpg";"<p>This is short description for 7719770922</p>";"7719770922";"N";"0";"1";"0"
"70.00";"http://18.138.249.139/abby-gra-50x70cm.html";"ABBY";"Root Catalog > Default Category";"http://18.138.249.139/pub/media/catalog/product/7/7/7719770922_3.jpg";"";"7755030901";"N";"0";"1";"0"
"150.00";"http://18.138.249.139/abby-gra-50x150cm.html";"ABBY";"Root Catalog > Default Category";"http://18.138.249.139/pub/media/catalog/product/7/7/7719770922_3.jpg";"";"7729220956";"N";"0";"1";"0"
"120.00";"http://18.138.249.139/abby-gra-35x120cm.html";"ABBY";"Root Catalog > Default Category";"http://18.138.249.139/pub/media/catalog/product/7/7/7719770922_3.jpg";"";"7727000954";"N";"0";"1";"0"
"40.00";"http://18.138.249.139/abby-gra-40x40cm.html";"ABBY";"Root Catalog > Default Category";"http://18.138.249.139/pub/media/catalog/product/7/7/7719770922_3.jpg";"";"7759590901";"N";"0";"1";"0"
"50.00";"http://18.138.249.139/abby-gra-35x50cm.html";"ABBY";"Root Catalog > Default Category";"http://18.138.249.139/pub/media/catalog/product/7/7/7719770922_3.jpg";"";"7754310901";"N";"0";"1";"0"
"175.00";"http://18.138.249.139/abby-rod-130x175cm.html";"ABBY";"Root Catalog > Default Category";"http://18.138.249.139/pub/media/catalog/product/7/7/7719770922_3.jpg";"";"7735220953";"N";"0";"1";"0"
"70.00";"http://18.138.249.139/abby-rod-50x70cm.html";"ABBY";"Root Catalog > Default Category";"http://18.138.249.139/pub/media/catalog/product/7/7/7719770922_3.jpg";"";"7725090954";"N";"0";"1";"0"
"150.00";"http://18.138.249.139/abby-rod-50x150cm.html";"ABBY";"Root Catalog > Default Category";"http://18.138.249.139/pub/media/catalog/product/7/7/7719770922_3.jpg";"";"7726726912";"N";"0";"1";"0"
"120.00";"http://18.138.249.139/abby-rod-35x120cm.html";"ABBY";"Root Catalog > Default Category";"http://18.138.249.139/pub/media/catalog/product/7/7/7719770922_3.jpg";"";"77295481654";"N";"0";"1";"0"
"40.00";"http://18.138.249.139/abby-rod-40x40cm.html";"ABBY";"Root Catalog > Default Category";"http://18.138.249.139/pub/media/catalog/product/7/7/7719770922_3.jpg";"";"7756693214";"N";"0";"1";"0"
"50.00";"http://18.138.249.139/abby-rod-35x50cm.html";"ABBY";"Root Catalog > Default Category";"http://18.138.249.139/pub/media/catalog/product/7/7/7719770922_3.jpg";"";"7777895412";"N";"0";"1";"0"
